…
Downloading and cleaning the sonnets

In addition to markovchain and tidyverse, I’m going to use the gutenberger package to download the sonnets.

library(gutenbergr)
library(tidyverse) 
library(markovchain) 

shakespeare <- gutenberg_works(title == "Shakespeare's Sonnets") %>% 
  pull(gutenberg_id) %>% 
  gutenberg_download(verbose = FALSE)

shakespeare

## # A tibble: 2,625 x 2
##    gutenberg_id text                                          
##           <int> <chr>                                         
##  1         1041 THE SONNETS                                   
##  2         1041 ""                                            
##  3         1041 by William Shakespeare                        
##  4         1041 ""                                            
##  5         1041 ""                                            
##  6         1041 ""                                            
##  7         1041 ""                                            
##  8         1041 "  I"                                         
##  9         1041 ""                                            
## 10         1041 "  From fairest creatures we desire increase,"
## # ... with 2,615 more rows
…
