…
## ── Conflicts ────────────────────────────────────────────────────────────────────────────────────────────────────────────────── tidyverse_conflicts() ──
## ✖ dplyr::filter() masks stats::filter()
## ✖ dplyr::lag()    masks stats::lag()

library(gapminder)

africa <- gapminder %>% 
  filter(continent == "Africa")

africa

## # A tibble: 624 x 6
##    country continent  year lifeExp      pop gdpPercap
##    <fct>   <fct>     <int>   <dbl>    <int>     <dbl>
##  1 Algeria Africa     1952    43.1  9279525     2449.
##  2 Algeria Africa     1957    45.7 10270856     3014.
##  3 Algeria Africa     1962    48.3 11000948     2551.
##  4 Algeria Africa     1967    51.4 12760499     3247.
##  5 Algeria Africa     1972    54.5 14760787     4183.
##  6 Algeria Africa     1977    58.0 17152804     4910.
##  7 Algeria Africa     1982    61.4 20033753     5745.
##  8 Algeria Africa     1987    65.8 23254956     5681.
##  9 Algeria Africa     1992    67.7 26298373     5023.
## 10 Algeria Africa     1997    69.2 29072015     4797.
## # ... with 614 more rows
…
Which countries had higher life expectancy in 1992 than 2007?

africa <- africa %>% 
  select(country, year, lifeExp) %>% 
  spread(year, lifeExp) %>% 
  mutate(le_dropped = `1992` > `2007`) %>% 
  select(country, le_dropped) %>% 
  left_join(africa, by = "country")

africa

## # A tibble: 624 x 7
##    country le_dropped continent  year lifeExp      pop gdpPercap
##    <fct>   <lgl>      <fct>     <int>   <dbl>    <int>     <dbl>
##  1 Algeria FALSE      Africa     1952    43.1  9279525     2449.
##  2 Algeria FALSE      Africa     1957    45.7 10270856     3014.
##  3 Algeria FALSE      Africa     1962    48.3 11000948     2551.
##  4 Algeria FALSE      Africa     1967    51.4 12760499     3247.
##  5 Algeria FALSE      Africa     1972    54.5 14760787     4183.
##  6 Algeria FALSE      Africa     1977    58.0 17152804     4910.
##  7 Algeria FALSE      Africa     1982    61.4 20033753     5745.
##  8 Algeria FALSE      Africa     1987    65.8 23254956     5681.
##  9 Algeria FALSE      Africa     1992    67.7 26298373     5023.
## 10 Algeria FALSE      Africa     1997    69.2 29072015     4797.
## # ... with 614 more rows
…
